<svg width="18" height="19" viewBox="0 0 18 19" fill="none" xmlns="http://www.w3.org/2000/svg">
<circle cx="6.78689" cy="6.78689" r="6.03689" stroke="white" stroke-width="1.5"/>
<line x1="11.087" y1="11.5351" x2="17.1198" y2="17.5679" stroke="white" stroke-width="1.5"/>
</svg>
