<?xml version="1.0" encoding="utf-8"?>
<svg width="15" height="25" viewBox="0 0 15 25" fill="none" xmlns="http://www.w3.org/2000/svg">
<path d="M14.2363 1H10.6264C9.03074 1 7.50042 1.59766 6.37211 2.6615C5.24379 3.72534 4.60991 5.16822 4.60991 6.67271V10.0763H1V14.6145H4.60991V23.6909H9.42312V14.6145H13.033L14.2363 10.0763H9.42312V6.67271C9.42312 6.37181 9.5499 6.08324 9.77556 5.87047C10.0012 5.6577 10.3073 5.53817 10.6264 5.53817H14.2363V1Z" stroke="white" stroke-linecap="round" stroke-linejoin="round"/>
</svg>
